; Engine configuration file.
; It's best edited using the editor UI and not directly,
; since the parameters that go here are not all obvious.
;
; Format:
;   [section] ; section goes between []
;   param=value ; assign values to parameters

config_version=4

_global_script_classes=[  ]
_global_script_class_icons={

}

[application]

config/name="tees-on.war-client"
run/main_scene="res://Lobby.tscn"
config/icon="res://icon.png"

[autoload]

network_manager="*res://network_manager.gd"

[rendering]

vram_compression/import_etc=true
vram_compression/import_etc2=false
quality/filters/use_nearest_mipmap_filter=true
quality/filters/msaa=2
environment/default_environment="res://default_env.tres"
