[gd_scene load_steps=2 format=2]

[ext_resource path="res://Players/Character/Body.tscn" type="PackedScene" id=1]

[node name="Player" type="Spatial"]

[node name="Camera" type="Camera" parent="."]
transform = Transform( -1, 0, -3.25841e-07, -8.76362e-08, 0.963153, 0.268953, 3.13835e-07, 0.268953, -0.963153, -1.38709, 3.70968, -4.22025 )

[node name="Body" parent="." instance=ExtResource( 1 )]
