[gd_scene load_steps=3 format=2]

[ext_resource path="res://Lobby/CharacterCustomization.gd" type="Script" id=1]
[ext_resource path="res://Players/Character/Body.tscn" type="PackedScene" id=2]

[node name="CharacterCustomization" type="Spatial"]
script = ExtResource( 1 )

[node name="Body" parent="." instance=ExtResource( 2 )]

[node name="Camera" type="Camera" parent="."]
transform = Transform( 0.941099, 0, 0.33813, 0, 1, 0, -0.33813, 0, 0.941099, 3.15826, 1.92602, 5.58177 )

[node name="PanelContainer" type="PanelContainer" parent="."]
anchor_left = 1.0
anchor_right = 1.0
margin_left = -70.0
margin_bottom = 106.0
__meta__ = {
"_edit_use_anchors_": false
}

[node name="VBoxContainer" type="VBoxContainer" parent="PanelContainer"]
margin_left = 7.0
margin_top = 7.0
margin_right = 63.0
margin_bottom = 99.0

[node name="Punk" type="Button" parent="PanelContainer/VBoxContainer"]
margin_right = 56.0
margin_bottom = 20.0
text = "Punk"

[node name="Jason" type="Button" parent="PanelContainer/VBoxContainer"]
margin_top = 24.0
margin_right = 56.0
margin_bottom = 44.0
text = "Jason"

[node name="Roman" type="Button" parent="PanelContainer/VBoxContainer"]
margin_top = 48.0
margin_right = 56.0
margin_bottom = 68.0
text = "Roman"

[node name="Viking" type="Button" parent="PanelContainer/VBoxContainer"]
margin_top = 72.0
margin_right = 56.0
margin_bottom = 92.0
text = "Viking"
